1, Nguyễn Thị A, Khoa học máy tính
2, Trần Thị B, Khoa học máy tính
3, Nguyễn Hoàng C, Khoa học vật liệu
4, Đinh Quang D, Khoa học vật liệu
5,Phạm Vũ Anh Quân,Khoa học máy tính
6,ffsdfsd,Khoa học vật liệu